[gd_scene load_steps=5 format=2]

[ext_resource path="res://assets/enemy.png" type="Texture" id=1]
[ext_resource path="res://src/Actors/Enemy.gd" type="Script" id=2]

[sub_resource type="RectangleShape2D" id=1]
extents = Vector2( 40, 36 )

[sub_resource type="RectangleShape2D" id=2]
extents = Vector2( 49, 11 )

[node name="Enemy" type="KinematicBody2D"]
collision_layer = 2
collision_mask = 9
script = ExtResource( 2 )

[node name="Sprite" type="Sprite" parent="."]
position = Vector2( 0, -48 )
texture = ExtResource( 1 )

[node name="CollisionShape2D" type="CollisionShape2D" parent="."]
position = Vector2( 0, -38 )
shape = SubResource( 1 )

[node name="VisibilityEnabler2D" type="VisibilityEnabler2D" parent="."]
visible = false
position = Vector2( -7.62939e-06, -47.5 )
scale = Vector2( 5.4, 4.65 )
process_parent = true
physics_process_parent = true

[node name="StompDetector" type="Area2D" parent="."]
position = Vector2( 0, -84 )
collision_layer = 2

[node name="CollisionShape2D" type="CollisionShape2D" parent="StompDetector"]
modulate = Color( 0.333333, 0.0509804, 0.376471, 1 )
shape = SubResource( 2 )
[connection signal="body_entered" from="StompDetector" to="." method="_on_StompDetector_body_entered"]
