[gd_scene load_steps=5 format=2]

[ext_resource path="res://assets/player.png" type="Texture" id=1]
[ext_resource path="res://src/Actors/Player.gd" type="Script" id=2]

[sub_resource type="RectangleShape2D" id=1]
extents = Vector2( 40, 43.9314 )

[sub_resource type="RectangleShape2D" id=2]
extents = Vector2( 45, 49 )

[node name="Player" type="KinematicBody2D"]
collision_mask = 8
script = ExtResource( 2 )
speed = Vector2( 800, 1400 )
gravity = 4000.0

[node name="Sprite" type="Sprite" parent="."]
position = Vector2( 0, -48 )
texture = ExtResource( 1 )

[node name="CollisionShape2D" type="CollisionShape2D" parent="."]
position = Vector2( 0, -44 )
shape = SubResource( 1 )

[node name="Camera2D" type="Camera2D" parent="."]
current = true
limit_left = 0
limit_top = 0
limit_smoothed = true
drag_margin_h_enabled = true
drag_margin_v_enabled = true
smoothing_enabled = true
smoothing_speed = 10.0
drag_margin_left = 0.0
drag_margin_right = 0.0

[node name="EnemyDetector" type="Area2D" parent="."]
modulate = Color( 0.34902, 0.184314, 0.431373, 1 )
position = Vector2( 0, -44 )
monitorable = false
collision_layer = 0
collision_mask = 2

[node name="CollisionShape2D" type="CollisionShape2D" parent="EnemyDetector"]
shape = SubResource( 2 )
[connection signal="area_entered" from="EnemyDetector" to="." method="_on_EnemyDetector_area_entered"]
[connection signal="body_entered" from="EnemyDetector" to="." method="_on_EnemyDetector_body_entered"]
